{
  "fun": [
    "def f(x):\n    return \"Write the Python function expression here\"\n        ",
    "def f(x):\n    return 0.1\n        ",
    "def f(x):\n    return \n        ",
    "def f(x):\n    return x^4 - x^None\n        ",
    "def f(x):\n    return x**4 - x**2 + 0.25 * x\n        "
  ],
  "plt": [
    "import numpy as np\nx = \"generate the array [-1.5, -1.47, ..., 1.47, 1.5] here\"\ny = f(x)\nimport matplotlib.pyplot as plt\n\"generate a plot of y versus x here\"\n        ",
    "import numpy as np\nx = None\ny = f(x)\nimport matplotlib.pyplot as plt\n\"generate a plot of y versus x here\"\n        ",
    "import numpy as np\nx = np.arange()\ny = f(x)\nimport matplotlib.pyplot as plt\n\"generate a plot of y versus x here\"\n        ",
    "import numpy as np\nx = np.arange(-1.5, 1.5, 0.3)\ny = f(x)\nimport matplotlib.pyplot as plt\n\"generate a plot of y versus x here\"\n        ",
    "import numpy as np\nx = np.arange(-1.5, 1.5, 0.3)\ny = f(x)\nimport matplotlib.pyplot as plt\nplt.plot(x,y)\n        ",
    "import numpy as np\nx = np.arange(-1.5, 1.5, 100)\ny = f(x)\nimport matplotlib.pyplot as plt\nplt.plot(x,y)\n        ",
    "import numpy as np\nx = np.arange(-1.5, 1.5, 0.3)\ny = f(x)\nimport matplotlib.pyplot as plt\nplt.plot(x,y)\n        ",
    "import numpy as np\nx = np.arange(-1.5, 1.53, 0.3)\ny = f(x)\nimport matplotlib.pyplot as plt\nplt.plot(x,y)\n        ",
    "import numpy as np\nx = np.arange(-1.5, 1.53, 0.03)\ny = f(x)\nimport matplotlib.pyplot as plt\nplt.plot(x,y)\n        ",
    "import numpy as np\nx = np.arange(-1.5, 1.503, 0.03)\ny = f(x)\nimport matplotlib.pyplot as plt\nplt.plot(x,y)\n        "
  ],
  "grad": [
    "def f_grad(x):\n    return \"compute the gradient of f at point x here\"",
    "def f_grad(x):\n    return \n        ",
    "def f_grad(x):\n    delta = 0.01\n    return \n        ",
    "def f_grad(x):\n    delta = 0.01\n    x1 = x - delta\n    x2 = x + delta\n    return \n        ",
    "def f_grad(x):\n    delta = 0.01\n    x1 = x - delta\n    x2 = x + delta\n    y1 = f(x1)\n    y2 = f(x2)\n    return \n        ",
    "def f_grad(x):\n    delta = 0.01\n    x1 = x - delta\n    x2 = x + delta\n    y1 = f(x1)\n    y2 = f(x2)\n    return y2\n        ",
    "def f_grad(x):\n    delta = 0.01\n    x1 = x - delta\n    x2 = x + delta\n    y1 = f(x1)\n    y2 = f(x2)\n    return (y2-y1) / delta\n        ",
    "def f_grad(x):\n    delta = 0.0001\n    x1 = x - delta\n    x2 = x + delta\n    y1 = f(x1)\n    y2 = f(x2)\n    return (y2-y1) / delta\n        ",
    "def f_grad(x):\n    delta = 0.0001\n    x1 = x - delta\n    x2 = x + delta\n    y1 = f(x1)\n    y2 = f(x2)\n    return 5 #(y2-y1) / delta\n        ",
    "def f_grad(x):\n    delta = 0.0001\n    x1 = x - delta\n    x2 = x + delta\n    y1 = f(x1)\n    y2 = f(x2)\n    return 5.0 #(y2-y1) / delta\n        ",
    "def f_grad(x):\n    delta = 0.0001\n    x1 = x - delta\n    x2 = x + delta\n    y1 = f(x1)\n    y2 = f(x2)\n    return 6.0 #(y2-y1) / delta\n        ",
    "def f_grad(x):\n    delta = 0.0001\n    x1 = x - delta\n    x2 = x + delta\n    y1 = f(x1)\n    y2 = f(x2)\n    return np.gradient(f) #(y2-y1) / delta\n        ",
    "def f_grad(x):\n    delta = 0.0001\n    x1 = x - delta\n    x2 = x + delta\n    y1 = f(x1)\n    y2 = f(x2)\n    return 6 #(y2-y1) / delta\n        ",
    "def f_grad(x):\n    delta = 0.0001\n    x1 = x - delta\n    x2 = x + delta\n    y1 = f(x1)\n    y2 = f(x2)\n    return 6.0 #(y2-y1) / delta\n        ",
    "def f_grad(x):\n    delta = 0.0001\n    x1 = x - delta\n    x2 = x + delta\n    y1 = f(x1)\n    y2 = f(x2)\n    return (y2-y1) / delta\n        ",
    "def f_grad(x):\n    delta = 0.0001\n    x1 = x - delta\n    x2 = x + delta\n    y1 = f(x1)\n    y2 = f(x2)\n    return (y2-y1) / 2 * delta\n        ",
    "def f_grad(x):\n    delta = 0.0001\n    x1 = x - delta\n    x2 = x + delta\n    y1 = f(x1)\n    y2 = f(x2)\n    return (y2-y1) / (2 * delta)\n        "
  ],
  "desc": [
    "def gradient_descent(f_grad, x0, eta):\n    x = x0\n    # TODO implement gradient descent here. Beware of endless loops!\n    return x\n    ",
    "def gradient_descent(f_grad, x0, eta):\n    x = x0\n    grad = f_grad(x)\n    # TODO implement gradient descent here. Beware of endless loops!\n    return x\n        ",
    "def gradient_descent(f_grad, x0, eta):\n    x = x0\n    n_steps = 0\n    grad = f_grad(x)\n    \n    # TODO implement gradient descent here. Beware of endless loops!\n    return x\n        ",
    "def gradient_descent(f_grad, x0, eta):\n    x = x0\n    n_steps = 0\n    grad = f_grad(x)\n    while grad > 0.001 or None:\n        pass# TODO implement gradient descent here. Beware of endless loops!\n    return x\n        ",
    "def gradient_descent(f_grad, x0, eta):\n    x = x0\n    n_steps = 0\n    grad = f_grad(x)\n    while grad > 0.001 or n_steps:\n        pass# TODO implement gradient descent here. Beware of endless loops!\n    return x\n        ",
    "def gradient_descent(f_grad, x0, eta):\n    x = x0\n    n_steps = 0\n    grad = f_grad(x)\n    while grad > 0.001 and n_steps < 1000:\n        pass\n    # TODO implement gradient descent here. Beware of endless loops!\n    return x\n        ",
    "def gradient_descent(f_grad, x0, eta):\n    x = x0\n    n_steps = 0\n    grad = f_grad(x)\n    while grad > 0.001 and n_steps < 1000:\n        x = x - eta * f_grad(x)\n    # TODO implement gradient descent here. Beware of endless loops!\n    return x\n        ",
    "def gradient_descent(f_grad, x0, eta):\n    x = x0\n    n_steps = 0\n    while grad > 0.001 and n_steps < 1000:\n        x = x - eta * f_grad(x)\n    # TODO implement gradient descent here. Beware of endless loops!\n    return x\n        ",
    "def gradient_descent(f_grad, x0, eta):\n    x = x0\n    n_steps = 0\n    while grad > 0.001 and n_steps < 1000:\n        x = x - eta * f_grad(x)\n        grad = f_grad(x)\n    # TODO implement gradient descent here. Beware of endless loops!\n    return x\n        ",
    "def gradient_descent(f_grad, x0, eta):\n    x = x0\n    n_steps = 0\n    grad = f_grad(x)\n    while grad > 0.001 and n_steps < 1000:\n        x = x - eta * f_grad(x)\n        grad = f_grad(x)\n    # TODO implement gradient descent here. Beware of endless loops!\n    return x\n        ",
    "def gradient_descent(f_grad, x0, eta):\n    x = x0\n    n_steps = 0\n    grad = f_grad(x)\n    while grad >= 0.001 and n_steps < 1000:\n        x = x - eta * f_grad(x)\n        grad = f_grad(x)\n    # TODO implement gradient descent here. Beware of endless loops!\n    return x\n        ",
    "def gradient_descent(f_grad, x0, eta):\n    x = x0\n    n_steps = 0\n    grad = f_grad(x)\n    while grad >= 0.001 and n_steps < 10000:\n        x = x - eta * f_grad(x)\n        grad = f_grad(x)\n    # TODO implement gradient descent here. Beware of endless loops!\n    return x\n        ",
    "def gradient_descent(f_grad, x0, eta):\n    x = x0\n    n_steps = 0\n    grad = f_grad(x)\n    stap_size = None\n    while grad >= 0.001 and n_steps < 10000:\n        x = x - eta * f_grad(x)\n        grad = f_grad(x)\n    # TODO implement gradient descent here. Beware of endless loops!\n    return x\n        ",
    "def gradient_descent(f_grad, x0, eta):\n    x = x0\n    n_steps = 0\n    grad = f_grad(x)\n    step_size = 1\n    while grad >= 0.001 and n_steps < 10000:\n        x = x - eta * f_grad(x)\n        grad = f_grad(x)\n    # TODO implement gradient descent here. Beware of endless loops!\n    return x\n        ",
    "def gradient_descent(f_grad, x0, eta):\n    x = x0\n    n_steps = 0\n    grad = f_grad(x)\n    step_size = 1\n    while grad >= 0.001 and n_steps < 10000:\n        x_new = x - eta * f_grad(x)\n        grad = f_grad(x)\n    # TODO implement gradient descent here. Beware of endless loops!\n    return x\n        ",
    "def gradient_descent(f_grad, x0, eta):\n    x = x0\n    n_steps = 0\n    grad = f_grad(x)\n    step_size = 1\n    while grad >= 0.001 and n_steps < 10000:\n        x_new = x - eta * f_grad(x)\n        grad = f_grad(x_new)\n        setp_size = np.abs(x_new - x)\n    # TODO implement gradient descent here. Beware of endless loops!\n    return x\n        ",
    "def gradient_descent(f_grad, x0, eta):\n    x = x0\n    n_steps = 0\n    grad = f_grad(x)\n    step_size = 1\n    while grad >= 0.001 and n_steps < 10000:\n        x = x_new\n        x_new = x - eta * f_grad(x)\n        grad = f_grad(x_new)\n        setp_size = np.abs(x_new - x)\n    # TODO implement gradient descent here. Beware of endless loops!\n    return x\n        ",
    "def gradient_descent(f_grad, x0, eta):\n    x = x0\n    n_steps = 0\n    grad = f_grad(x)\n    step_size = 1\n    while grad >= 0.001 and n_steps < 10000:\n        x = x0\n        x_new = x - eta * f_grad(x)\n        grad = f_grad(x_new)\n        setp_size = np.abs(x_new - x)\n    # TODO implement gradient descent here. Beware of endless loops!\n    return x\n        ",
    "def gradient_descent(f_grad, x0, eta):\n    x = x0\n    n_steps = 0\n    grad = f_grad(x)\n    step_size = 1\n    while grad >= 0.001 and n_steps < 10000:\n        x0 = x\n        x = x0 - eta * f_grad(x)\n        grad = f_grad(x_new)\n        setp_size = np.abs(x_new - x)\n    # TODO implement gradient descent here. Beware of endless loops!\n    return x\n        ",
    "def gradient_descent(f_grad, x0, eta):\n    x = x0\n    n_steps = 0\n    grad = f_grad(x)\n    step_size = 1\n    while grad >= 0.001 and n_steps < 10000:\n        x0 = x\n        x = x0 - eta * f_grad(x0)\n        grad = f_grad(x_new)\n        setp_size = np.abs(x_new - x)\n    # TODO implement gradient descent here. Beware of endless loops!\n    return x\n        ",
    "def gradient_descent(f_grad, x0, eta):\n    x = x0\n    n_steps = 0\n    grad = f_grad(x)\n    step_size = 1\n    while grad >= 0.001 and n_steps < 10000:\n        x0 = x\n        x = x0 - eta * f_grad(x0)\n        grad = f_grad(x)\n        setp_size = np.abs(x_new - x)\n    # TODO implement gradient descent here. Beware of endless loops!\n    return x\n        ",
    "def gradient_descent(f_grad, x0, eta):\n    x = x0\n    n_steps = 0\n    grad = f_grad(x)\n    step_size = 1\n    while grad >= 0.001 and n_steps < 10000:\n        x0 = x\n        x = x0 - eta * f_grad(x0)\n        grad = f_grad(x)\n        step_size = np.abs(x_new - x)\n    # TODO implement gradient descent here. Beware of endless loops!\n    return x\n        ",
    "def gradient_descent(f_grad, x0, eta):\n    x = x0\n    n_steps = 0\n    grad = f_grad(x)\n    step_size = 1\n    while grad >= 0.001 and n_steps < 10000:\n        x0 = x\n        x = x0 - eta * f_grad(x0)\n        grad = f_grad(x)\n        step_size = np.abs(x - x0)\n    # TODO implement gradient descent here. Beware of endless loops!\n    return x\n        ",
    "def gradient_descent(f_grad, x0, eta):\n    x = x0\n    n_steps = 0\n    grad = f_grad(x)\n    step_size = 1\n    while grad >= 0.001 and n_steps < 10000 and step_size :\n        x0 = x\n        x = x0 - eta * f_grad(x0)\n        grad = f_grad(x)\n        step_size = np.abs(x - x0)\n    # TODO implement gradient descent here. Beware of endless loops!\n    return x\n        ",
    "def gradient_descent(f_grad, x0, eta):\n    x = x0\n    n_steps = 0\n    grad = f_grad(x)\n    step_size = 1\n    while grad >= 0.001 and n_steps < 10000 and step_size > 0.001:\n        x0 = x\n        x = x0 - eta * f_grad(x0)\n        grad = f_grad(x)\n        step_size = np.abs(x - x0)\n    # TODO implement gradient descent here. Beware of endless loops!\n    return x\n        ",
    "def gradient_descent(f_grad, x0, eta):\n    x = x0\n    n_steps = 0\n    grad = f_grad(x)\n    step_size = 1\n    while grad >= 0.001 and n_steps < 10000 and step_size > 0.001:\n        x0 = x\n        x = x0 - eta * f_grad(x0)\n        grad = f_grad(x)\n        step_size = np.abs(x - x0)\n        n_steps += 1\n    # TODO implement gradient descent here. Beware of endless loops!\n    return x\n        ",
    "def gradient_descent(f_grad, x0, eta):\n    x = x0\n    n_steps = 0\n    grad = f_grad(x)\n    step_size = 1\n    while grad >= 0.001 and n_steps < 10000 and step_size > 0.001:\n        x0 = x\n        x = x0 - eta * f_grad(x0)\n        grad = f_grad(x)\n        step_size = np.abs(x - x0)\n        n_steps += 1\n    # TODO implement gradient descent here. Beware of endless loops!\n    return 1\n        ",
    "def gradient_descent(f_grad, x0, eta):\n    x = x0\n    n_steps = 0\n    grad = f_grad(x)\n    step_size = 1\n    while grad >= 0.001 and n_steps < 10000 and step_size > 0.001:\n        x0 = x\n        x = x0 - eta * f_grad(x0)\n        grad = f_grad(x)\n        step_size = np.abs(x - x0)\n        n_steps += 1\n    # TODO implement gradient descent here. Beware of endless loops!\n    return 1.0\n        ",
    "def gradient_descent(f_grad, x0, eta):\n    x = x0\n    n_steps = 0\n    grad = f_grad(x)\n    step_size = 1\n    while grad >= 0.001 and n_steps < 10000 and step_size > 0.001:\n        x0 = x\n        x = x0 - eta * f_grad(x0)\n        grad = f_grad(x)\n        step_size = np.abs(x - x0)\n        n_steps += 1\n    # TODO implement gradient descent here. Beware of endless loops!\n    return x\n        ",
    "def gradient_descent(f_grad, x0, eta):\n    x = x0\n    n_steps = 0\n    grad = f_grad(x)\n    step_size = 1\n    while np.abs(grad) >= 0.001 and n_steps < 10000 and step_size > 0.001:\n        x0 = x\n        x = x0 - eta * f_grad(x0)\n        grad = f_grad(x)\n        step_size = np.abs(x - x0)\n        n_steps += 1\n    # TODO implement gradient descent here. Beware of endless loops!\n    return x\n        ",
    "def gradient_descent(f_grad, x0, eta):\n    x = x0\n    n_steps = 0\n    grad = f_grad(x)\n    step_size = 1\n    while np.abs(grad) >= 0.001 and n_steps < 1000:\n        x0 = x\n        x = x0 - eta * f_grad(x0)\n        grad = f_grad(x)\n        step_size = np.abs(x - x0)\n        n_steps += 1\n    # TODO implement gradient descent here. Beware of endless loops!\n    return x\n        "
  ],
  "fin": [
    "x0 = 1. # Change this value\neta = 1. # Change this value\nx = gradient_descent(f_grad, x0, eta)\n    ",
    "x0 = 0 # Change this value\neta = 0.001 # Change this value\nx = gradient_descent(f_grad, x0, eta)\n        ",
    "x0 = 0. # Change this value\neta = 0.001 # Change this value\nx = gradient_descent(f_grad, x0, eta)\n        ",
    "x0 = -1.0 # Change this value\neta = 0.001 # Change this value\nx = gradient_descent(f_grad, x0, eta)\n        "
  ]
}
