{
  "fun": [
    "def f(x):\n    return \"Write the Python function expression here\"\n        ",
    "def f(x):\n    return x ** 4 - x ** 2 + 0.25 * x\n        "
  ],
  "plt": [
    "import numpy as np\nx = None\ny = f(x)\nimport matplotlib.pyplot as plt\n\"generate a plot of y versus x here\"\n        ",
    "import numpy as np\nx = np.arange()\ny = f(x)\nimport matplotlib.pyplot as plt\n\"generate a plot of y versus x here\"\n        ",
    "import numpy as np\nx = np.arange(-1.5, 1.51, 0.03)\ny = f(x)\nimport matplotlib.pyplot as plt\n\"generate a plot of y versus x here\"\n        ",
    "import numpy as np\nx = np.arange(-1.5, 1.51, 0.03)\ny = f(x)\nimport matplotlib.pyplot as plt\nplt.plot()\n        ",
    "import numpy as np\nx = np.arange(-1.5, 1.51, 0.03)\ny = f(x)\nimport matplotlib.pyplot as plt\nplt.plot(x, y, bo)\n        ",
    "import numpy as np\nx = np.arange(-1.5, 1.51, 0.03)\ny = f(x)\nimport matplotlib.pyplot as plt\nplt.plot(x, y, 'bo')\n        "
  ],
  "grad": [
    "def f_grad(x):\n    return \"compute the gradient of f at point x here\"",
    "def f_grad(x):\n    return 4 * x **3 - None\n        ",
    "def f_grad(x):\n    return 4 * x ** 3 - 2 * x + 0.25\n        "
  ],
  "desc": [
    "def gradient_descent(f_grad, x0, eta):\n    x = x0\n    # TODO implement gradient descent here. Beware of endless loops!\n    return x\n    ",
    "def gradient_descent(f_grad, x0, eta):\n    x = x0\n    while (abs(f_grad(x)) ):\n        pass\n    return x\n        ",
    "def gradient_descent(f_grad, x0, eta):\n    x = x0\n    while (abs(f_grad(x)) > 0.001) :\n        pass\n    return x\n        ",
    "def gradient_descent(f_grad, x0, eta):\n    x = x0\n    while (abs(f_grad(x)) > 0.001) :\n        x = x - eta * None\n    return x\n        ",
    "def gradient_descent(f_grad, x0, eta):\n    x = x0\n    while (abs(f_grad(x)) > 0.001) :\n        x = x - eta * f_grad(x)\n    return x\n        "
  ],
  "fin": [
    "x0 = 1. # Change this value\neta = 1. # Change this value\nx = gradient_descent(f_grad, x0, eta)\n    ",
    "x0 = -1.0 # Change this value\neta = 1. # Change this value\nx = gradient_descent(f_grad, x0, eta)\n        ",
    "x0 = -1.0 # Change this value\neta = 0.001 # Change this value\nx = gradient_descent(f_grad, x0, eta)\n        "
  ]
}
